…
``` r
boot_straps = data_frame(
  strap_number = 1:1000,
  strap_sample = rerun(1000, boot_sample(sim_df_nonconst))
)

boot_straps %>% 
  filter(strap_number %in% 1:2) %>% 
  mutate(strap_sample = map(strap_sample, ~arrange(.x, x))) %>% # arrange by x
  pull(strap_sample)
```

    ## [[1]]
    ## # A tibble: 250 x 3
    ##         x   error       y
    ##     <dbl>   <dbl>   <dbl>
    ##  1 -1.21  -0.781  -2.43  
    ##  2 -0.914 -0.908  -1.65  
    ##  3 -0.914 -0.908  -1.65  
    ##  4 -0.733  0.447   0.248 
    ##  5 -0.733  0.447   0.248 
    ##  6 -0.733  0.447   0.248 
    ##  7 -0.733  0.447   0.248 
    ##  8 -0.641 -0.416  -0.338 
    ##  9 -0.606 -0.106   0.0774
    ## 10 -0.536  0.0227  0.413 
    ## # ... with 240 more rows
    ## 
    ## [[2]]
    ## # A tibble: 250 x 3
    ##         x   error      y
    ##     <dbl>   <dbl>  <dbl>
    ##  1 -1.29   1.40   -0.454
    ##  2 -0.989 -1.97   -2.93 
    ##  3 -0.914 -0.908  -1.65 
    ##  4 -0.805  0.292  -0.123
    ##  5 -0.733  0.447   0.248
    ##  6 -0.733  0.447   0.248
    ##  7 -0.733  0.447   0.248
    ##  8 -0.665 -0.544  -0.539
    ##  9 -0.536  0.0227  0.413
    ## 10 -0.536  0.0227  0.413
    ## # ... with 240 more rows
…
